Charter school growth over time
…
dat16_enroll

## # A tibble: 9,318 x 4
##    charter county_code enrollment  prop
##      <dbl> <chr>            <dbl> <dbl>
##  1       0 01001             9307     1
##  2       1 01001                0     0
##  3      NA 01001                0     0
##  4       0 01003            31214     1
##  5       1 01003                0     0
##  6      NA 01003                0     0
##  7       0 01005             4796     1
##  8       1 01005                0     0
##  9      NA 01005                0     0
## 10       0 01007             3291     1
## #  with 9,308 more rows
…
charter_enroll

## # A tibble: 55,886 x 5
##    charter county_code  year enrollment  prop
##      <dbl> <chr>       <int>      <dbl> <dbl>
##  1       0 01001        2000       9018     1
##  2       1 01001        2000          0     0
##  3       0 01001        2002       8850     1
##  4       1 01001        2002          0     0
##  5       0 01001        2004       8694     1
##  6       1 01001        2004          0     0
##  7       0 01001        2006       9100     1
##  8       1 01001        2006          0     0
##  9       0 01001        2008       9266     1
## 10       1 01001        2008          0     0
## #  with 55,876 more rows
…
